﻿$intro1 =
"@
                     -++++++:                                          :++++++-                     
                     -++++++:                                          :++++++-                     
                     .:+++++-                                          :++++/+-                     
                     `::::::-... ...                            .......-:::::-.                     
                            -+++/++:                            :++++++-                            
                            -++++++:                            :/+++++-                            
                            -+/++++:                            :++++++-                            
                     -::::::/+/+/++/::::::::::::::::::::::::::::+++++++/::::/:-                     
                     -++/++//++++++/++++++++++++++++++++++++++++++++++++++++++-                     
                     -++/+/+++++++++++++++++++++++++++++++++++++++++++++++++/+-                     
       ``````````````:++++++////////+++++///++++++++++++++++++++////////++++++:``````````````       
       :///::////////+++:/++:      .++++++:+++++++++++++++/+++++.      :+++++++//////////////       
       /+/////++++++++++/:++:      .+++++//+++++++++++++++++++++.      :+++++++++++++//+++++/       
       ///+++/++++++++++++++-      .+++//+/+/+++/+++++++++++++++.      :+++/++++++++++-+++++/       
-------/+/:./++++++++++++/++...----:+++:/++//++//+/+/+//+/+/+/++:------/+:+../++++++++:/++++/-------
++++//+++//:-:/++++++++++/+++/:+++////--//+//+//++/+/+//+/+/+/+++++++++++/+--/+++++++++-/++++/++++++
+++-+++://+/++++++++++++//+++++/::-/:.-/+++++++/:+++++++/+++++++++++++/++++++++++++++++/:++++/++++++
+++-+++-/////////////+++-/++++//--::-/+++++++++/:++++++/:+++++++++++/:+++++++++/////////////+/++++++
/+:++++.`````````````:++/+++//++///-://++++++++++++++++//+:/++++++++:-+:+++++/:`````````````./++++++
/+-+/++`             -+/+++/+++++/-///+++++/++++++++////++++++++++++++/.++++++-             `/++++++
+:-/++/`             -/:+++++++/:/+++++++++++++++/++//+//+:++++++++:/://++++++-             `/+++++/
+:/::+/`             -/++++////.::/::////////:/::/::/::-/:////:///::-///++++++-             `/+++/:/
+:+//++`             -+++++/-                                          :++++++-             `/+++///
//+//+/`             -+/++/-.                                          :++++++-             `+++:-/+
/+++/:-`             -++++--:                                          :++++++-             `///++++
+++++.``              `...`.----::::::::::-              -:::::::::--::-......`             `//+++++
+++///.                     .++++++++/:++//              /++++++++:-+++-                    `/++++++
++++++/`                    -+++++//+++++//              /++++++++/++++-                    `/++++++
+/+++++`                    -+++/++++//+/+/              /+++++++++++++-                    `/++++++

@"

$intro2 =
"@
                     -++++++:                                          :++++++-                     
                     -++++++:                                          :++++++-                     
                     .:+++++-                                          :++++/+-                     
                     `::::::-... ...                            .......-:::::-.                     
                            -+++/++:                            :++++++-                            
                            -++++++:                            :/+++++-                            
                            -+/++++:                            :++++++-                            
                     -::::::/+/+/++/::::::::::::::::::::::::::::+++++++/::::/:-                     
                     -++/++//++++++/++++++++++++++++++++++++++++++++++++++++++-                     
                     -++/+/+++++++++++++++++++++++++++++++++++++++++++++++++/+-                     
       ``````````````:++++++////////+++++///++++++++++++++++++++////////++++++:``````````````       
       :///::////////+++:/++:      .++++++:+++++++++++++++/+++++.      :+++++++//////////////       
       /+/////++++++++++/:++:      .+++++//+++++++++++++++++++++.      :+++++++++++++//+++++/       
       ///+++/++++++++++++++-      .+++//+/+/+++/+++++++++++++++.      :+++/++++++++++-+++++/       
-------/+/:./++++++++++++/++...----:+++:/++//++//+/+/+//+/+/+/++:------/+:+../++++++++:/++++/-------
++++//+++//:-:/++++++++++/+++/:+++////--//+//+//++/+/+//+/+/+/+++++++++++/+--/+++++++++-/++++/++++++
+++-+++://+/++++++++++++//+++++/::-/:.-/+++++++/:+++++++/+++++++++++++/++++++++++++++++/:++++/++++++
+++-+++-/////////////+++-/++++//--::-/+++++++++/:++++++/:+++++++++++/:+++++++++/////////////+/++++++
/+:++++.`````````````:++/+++//++///-://++++++++++++++++//+:/++++++++:-+:+++++/:`````````````./++++++
/+-+/++`             -+/+++/+++++/-///+++++/++++++++////++++++++++++++/.++++++-             `/++++++
+:-/++/`             -/:+++++++/:/+++++++++++++++/++//+//+:++++++++:/://++++++-             `/+++++/
+:/::+/`             -/++++////.::/::////////:/::/::/::-/:////:///::-///++++++-             `/+++/:/
+:+//++`             -+++++/-                                          :++++++-             `/+++///
//+//+/`             -+/++/-.                                          :++++++-             `+++:-/+
/+++/:-`             -++++--:                                          :++++++-             `///++++
        +++++.``     `...`.----::::::::::-              -:::::::::--::-......`       `//+++++
        +++///.            .++++++++/:++//              /++++++++:-+++-              `/++++++
        ++++++/`           -+++++//+++++//              /++++++++/++++-              `/++++++
        +/+++++`           -+++/++++//+/+/              /+++++++++++++-              `/++++++
@"